{
    "childs": [
	{"abbr": "BHR", "name": "Bahrain"},
	{"abbr": "IRQ", "name": "Iraq"},
	{"abbr": "JOR", "name": "Jordan"},
	{"abbr": "KUW", "name": "Kuwait"},
	{"abbr": "LIB", "name": "Lebanon"},
	{"abbr": "OMA", "name": "Oman"},
	{"abbr": "PLE", "name": "State of Palestine"},
	{"abbr": "QAT", "name": "Qatar"},
	{"abbr": "KSA", "name": "Saudi Arabia"},
	{"abbr": "SYR", "name": "Syria Syria"},
	{"abbr": "UAE", "name": "United Arab Emirates"},
	{"abbr": "YEM", "name": "Yemen"},
	{"abbr": "AFG", "name": "Afghanistan"},
	{"abbr": "IRN", "name": "Iran"},
	{"abbr": "KGZ", "name": "Kyrgyzstan"},
	{"abbr": "TJK", "name": "Tajikistan"},
	{"abbr": "TKM", "name": "Turkmenistan"},
	{"abbr": "UZB", "name": "Uzbekistan"},
	{"abbr": "BAN", "name": "Bangladesh"},
	{"abbr": "BHU", "name": "Bhutan"},
	{"abbr": "IND", "name": "India"},
	{"abbr": "MDV", "name": "Maldives"},
	{"abbr": "NEP", "name": "Nepal"},
	{"abbr": "PAK", "name": "Pakistan"},
	{"abbr": "SRI", "name": "Sri Lanka"},
	{"abbr": "CHN", "name": "China"},
	{"abbr": "GUM", "name": "Guam"},
	{"abbr": "HKG", "name": "Hong Kong"},
	{"abbr": "JPN", "name": "Japan"},
	{"abbr": "PRK", "name": "North Korea"},
	{"abbr": "KOR", "name": "South Korea"},
	{"abbr": "MAC", "name": "Macau"},
	{"abbr": "MNG", "name": "Mongolia"},
	{"abbr": "NMI", "name": "Northern Mariana Islands"},
	{"abbr": "TPE", "name": "Chinese Taipei"},
	{"abbr": "AUS", "name": "Australia"},
	{"abbr": "BRU", "name": "Brunei"},
	{"abbr": "CAM", "name": "Cambodia"},
	{"abbr": "IDN", "name": "Indonesia"},
	{"abbr": "LAO", "name": "Laos"},
	{"abbr": "MAS", "name": "Malaysia"},
	{"abbr": "MYA", "name": "Myanmar"},
	{"abbr": "PHI", "name": "Philippines"},
	{"abbr": "SIN", "name": "Singapore"},
	{"abbr": "THA", "name": "Thailand"},
	{"abbr": "TLS", "name": "Timor-Leste"},
	{"abbr": "VIE", "name": "Vietnam"}
    ]
}
