{
    "childs": [
	{"abbr": "ALG", "name": "Algeria"},
	{"abbr": "EGY", "name": "Egypt"},
	{"abbr": "LBY", "name": "Libya"},
	{"abbr": "MAR", "name": "Morocco"},
	{"abbr": "TUN", "name": "Tunisia"},
	{"abbr": "BEN", "name": "Benin"},
	{"abbr": "BFA", "name": "Burkina Faso"},
	{"abbr": "CPV", "name": "Cape Verde"},
	{"abbr": "GAM", "name": "Gambia"},
	{"abbr": "GHA", "name": "Ghana"},
	{"abbr": "GUI", "name": "Guinea"},
	{"abbr": "GNB", "name": "Guinea-Bissau"},
	{"abbr": "CIV", "name": "Ivory Coast"},
	{"abbr": "LBR", "name": "Liberia"},
	{"abbr": "MLI", "name": "Mali"},
	{"abbr": "MTN", "name": "Mauritania"},
	{"abbr": "NIG", "name": "Niger"},
	{"abbr": "NGA", "name": "Nigeria"},
	{"abbr": "SEN", "name": "Senegal"},
	{"abbr": "SLE", "name": "Sierra Leone"},
	{"abbr": "TOG", "name": "Togo"},
	{"abbr": "CMR", "name": "Cameroon"},
	{"abbr": "CTA", "name": "Central African Republic"},
	{"abbr": "CHA", "name": "Chad"},
	{"abbr": "CGO", "name": "Congo"},
	{"abbr": "COD", "name": "DR Congo"},
	{"abbr": "EQG", "name": "Equatorial Guinea"},
	{"abbr": "GAB", "name": "Gabon"},
	{"abbr": "STP", "name": "São Tomé and Príncipe"},
	{"abbr": "BDI", "name": "Burundi"},
	{"abbr": "DJI", "name": "Djibouti"},
	{"abbr": "ERI", "name": "Eritrea"},
	{"abbr": "ETH", "name": "Ethiopia"},
	{"abbr": "KEN", "name": "Kenya"},
	{"abbr": "RWA", "name": "Rwanda"},
	{"abbr": "SOM", "name": "Somalia"},
	{"abbr": "SSD", "name": "South Sudan"},
	{"abbr": "SDN", "name": "Sudan"},
	{"abbr": "TAN", "name": "Tanzania"},
	{"abbr": "UGA", "name": "Uganda"},
	{"abbr": "ZAN", "name": "Zanzibar"},
	{"abbr": "ANG", "name": "Angola"},
	{"abbr": "BOT", "name": "Botswana"},
	{"abbr": "COM", "name": "Comoros"},
	{"abbr": "LES", "name": "Lesotho"},
	{"abbr": "MAD", "name": "Madagascar"},
	{"abbr": "MWI", "name": "Malawi"},
	{"abbr": "MRI", "name": "Mauritius"},
	{"abbr": "MOZ", "name": "Mozambique"},
	{"abbr": "NAM", "name": "Namibia"},
	{"abbr": "SEY", "name": "Seychelles"},
	{"abbr": "RSA", "name": "South Africa"},
	{"abbr": "SWZ", "name": "Swaziland"},
	{"abbr": "ZAM", "name": "Zambia"},
	{"abbr": "ZIM", "name": "Zimbabwe"},
	{"abbr": "REU", "name": "Réunion"}
    ]
}
